Data Harvesting project
…
Now it is time to continue our analysis of sentiment:

Bucle <- req |> 
  req_url_path_append(paste("playlists", En_Bucle, sep = "/")) |> 
  req_perform() |> 
  resp_body_json(simplifyVector = TRUE)

Bucle <- Bucle$track$items |> 
  select(track)  |>  
  unnest(track) |> 
  select(c(artists,album, name, id, explicit, duration_ms, popularity, href))
Bucle 

# A tibble: 30 × 8
   artists      album$album_type name       id    explicit duration_ms
   <list>       <chr>            <chr>      <chr> <lgl>          <int>
 1 <df [4 × 6]> single           Pensabas   6Vpn… TRUE          292000
 2 <df [2 × 6]> single           Nota       2rm9… TRUE          159482
 3 <df [2 × 6]> single           Dale       5JnA… FALSE         164181
 4 <df [3 × 6]> album            Godzilla … 7rbs… FALSE         314665
 5 <df [1 × 6]> album            No Sé Nad… 5234… FALSE         211969
 6 <df [1 × 6]> album            El Hokage  5GZ4… TRUE          125124
 7 <df [1 × 6]> album            Mi Realid… 0m0H… FALSE         191973
 8 <df [1 × 6]> single           Dile a Tu… 2mcb… FALSE         187514
 9 <df [1 × 6]> album            Más Colao… 6ZoO… FALSE         161186
10 <df [2 × 6]> album            Me Gustas… 1Sym… TRUE          170078
# ℹ 20 more rows
# ℹ 14 more variables: album$artists <list>,
#   $available_markets <list>, $external_urls <df[,1]>, $href <chr>,
#   $id <chr>, $images <list>, $name <chr>, $release_date <chr>,
#   $release_date_precision <chr>, $total_tracks <int>, $type <chr>,
#   $uri <chr>, popularity <int>, href <chr>
…
As can be observed, we have information on the top 30 most listened to songs, which is why we have 30 rows, one for each song. Our aim is to gather information strictly related to the track itself, excluding details about the thumbnail or the uploader. Therefore, we will choose the track field and proceed to expand it, revealing the contained details.

We have also saved the Bucle_Id for what we’ll see later on.

However, we still retain some dataframes like those of the artist or album. Let’s work with that…

Buclefiltered_1 <- Bucle |> 
  unnest(artists, names_sep = "_") |> 
  select(artist_name = artists_name, name) |> 
  distinct(name, .keep_all = TRUE) |> 
  group_by(name, artist_name)

Buclefiltered_1

# A tibble: 30 × 2
# Groups:   name, artist_name [30]
   artist_name    name                                              
   <chr>          <chr>                                             
 1 Mora           Pensabas                                          
 2 Eladio Carrion Nota                                              
 3 Pole.          Dale                                              
 4 Leiva          Godzilla (feat. Enrique Bunbury & Ximena Sariñana)
 5 Arnau Griso    No Sé Nadar                                       
 6 Eladio Carrion El Hokage                                         
 7 Lori Meyers    Mi Realidad                                       
 8 Enol           Dile a Tu Hijo                                    
 9 La La Love You Más Colao Que el Colacao                          
10 Eladio Carrion Me Gustas Natural                                 
# ℹ 20 more rows
…
En_Bucle_feelings <- data.frame()

for(i in 1:length(unique(Buclesongs))) { 
  Sys.sleep(2)
  Buclesong <- req |>  
  req_url_path_append(paste("audio-features", unique(Buclesongs)[i], sep = "/")) |>  
  req_perform() |>  
  resp_body_json(simplifyVector = TRUE) |>  
  as_tibble()
  
  En_Bucle_feelings <- rbind(Buclesong, En_Bucle_feelings)
} 
En_Bucle_feelings

# A tibble: 30 × 18
   danceability energy   key loudness  mode speechiness acousticness
          <dbl>  <dbl> <int>    <dbl> <int>       <dbl>        <dbl>
 1        0.531  0.686    10    -6.31     1      0.0359      0.263  
 2        0.297  0.715    10    -7.43     1      0.0373      0.0797 
 3        0.781  0.9       2    -4.57     1      0.103       0.077  
 4        0.505  0.688    11    -5.56     1      0.0333      0.0264 
 5        0.448  0.971     0    -3.64     1      0.275       0.512  
 6        0.509  0.905     7    -7.04     1      0.0825      0.00215
 7        0.548  0.838    11    -5.68     1      0.161       0.0761 
 8        0.275  0.874     1    -7.02     0      0.107       0.03   
 9        0.346  0.744     2    -5.62     1      0.0322      0.00106
10        0.585  0.608    10    -5.51     1      0.0263      0.0249 
# ℹ 20 more rows
# ℹ 11 more variables: instrumentalness <dbl>, liveness <dbl>,
#   valence <dbl>, tempo <dbl>, type <chr>, id <chr>, uri <chr>,
#   track_href <chr>, analysis_url <chr>, duration_ms <int>,
#   time_signature <int>
The problem with doing this code is that we lose the name of the songs. Although there is a solution for this, to make everything much clearer we are going to make a full_join to join the two dataframes.

Bucle_full <- Bucle_final |>  
  full_join(En_Bucle_feelings, by = "id") |>  
  select(name, album_name, everything()) |>  
  mutate(duration = duration_ms / 1000) |>  
  select(-duration_ms)

Bucle_full <- Bucle_full |> 
  ungroup() |> 
  mutate(Position = row_number())

Bucle_full

# A tibble: 30 × 23
   name    album_name artist_name id    popularity danceability energy
   <chr>   <chr>      <chr>       <chr>      <int>        <dbl>  <dbl>
 1 Pensab… Pensabas   Mora        6Vpn…         71        0.624  0.447
 2 Nota    Nota       Eladio Car… 2rm9…         69        0.7    0.545
 3 Dale    Dale       Pole.       5JnA…         44        0.818  0.808
 4 Godzil… Nuclear    Leiva       7rbs…         53        0.447  0.477
 5 No Sé … Revolució… Arnau Griso 5234…         30        0.463  0.808
 6 El Hok… 3MEN2 KBRN Eladio Car… 5GZ4…         66        0.821  0.594
 7 Mi Rea… Cuando El… Lori Meyers 0m0H…         57        0.574  0.734
 8 Dile a… Dile a Tu… Enol        2mcb…         20        0.698  0.64 
 9 Más Co… La la Lov… La La Love… 6ZoO…         58        0.389  0.891
10 Me Gus… Sauce Boy… Eladio Car… 1Sym…         77        0.721  0.426
# ℹ 20 more rows
# ℹ 16 more variables: key <int>, loudness <dbl>, mode <int>,
#   speechiness <dbl>, acousticness <dbl>, instrumentalness <dbl>,
#   liveness <dbl>, valence <dbl>, tempo <dbl>, type <chr>,
#   uri <chr>, track_href <chr>, analysis_url <chr>,
#   time_signature <int>, duration <dbl>, Position <int>
…
for(i in 1:length(unique(espsongs))) { 
  
  top50song <- req |>  
  req_url_path_append(paste("audio-features", espsongs[i], sep = "/")) |>  
  req_perform() |>  
  resp_body_json(simplifyVector = TRUE) |>  
  as.tibble()
  3
  top50espsongs <- rbind(top50song, top50espsongs)
  
} 

top50espsongs

# A tibble: 50 × 18
   danceability energy   key loudness  mode speechiness acousticness
          <dbl>  <dbl> <int>    <dbl> <int>       <dbl>        <dbl>
 1        0.725  0.671     4    -6.41     0      0.0557       0.0661
 2        0.708  0.737     1    -4.04     1      0.0436       0.0739
 3        0.777  0.774     8    -3.08     0      0.0553       0.0895
 4        0.472  0.471    10    -5.69     1      0.0603       0.151 
 5        0.823  0.882     3    -3.51     0      0.0556       0.688 
 6        0.537  0.421     5    -8.72     1      0.0285       0.827 
 7        0.773  0.893     1    -3.73     0      0.0483       0.164 
 8        0.817  0.851    11    -3.31     0      0.0627       0.0351
 9        0.557  0.744     1    -4.18     1      0.344        0.481 
10        0.623  0.799     8    -4.15     0      0.0713       0.153 
# ℹ 40 more rows
# ℹ 11 more variables: instrumentalness <dbl>, liveness <dbl>,
#   valence <dbl>, tempo <dbl>, type <chr>, id <chr>, uri <chr>,
#   track_href <chr>, analysis_url <chr>, duration_ms <int>,
#   time_signature <int>

We already have the sentiments of the top 50 songs in Spain at the moment. However, the table does not show the names of the songs. Let’s show who each song belongs to.

top50españa <- top50españa |>  
  select(c(name, id))

top50espdfull <- top50españa |>  
  full_join(top50espsongs, by = "id") |>  
  mutate(Position = row_number(), 
         playlist = "TOP 50") |>  
  select(c(name, Position, danceability, energy, key, loudness, speechiness, acousticness, instrumentalness, liveness, valence, tempo, playlist))

top50espdfull 

# A tibble: 50 × 13
   name        Position danceability energy   key loudness speechiness
   <chr>          <int>        <dbl>  <dbl> <int>    <dbl>       <dbl>
 1 FARDOS             1        0.785  0.897     5    -3.20      0.0332
 2 X'CLUSIVO …        2        0.813  0.552     6    -6.33      0.0769
 3 1000COSAS          3        0.697  0.74      6    -4.72      0.0397
 4 Gata Only          4        0.791  0.499     8    -8.47      0.0509
 5 Lo Que Tie…        5        0.757  0.768     1    -5.13      0.0379
 6 LUNA               6        0.774  0.86      7    -2.89      0.13  
 7 Manos Rotas        7        0.728  0.59      4    -5.79      0.204 
 8 LA FALDA           8        0.8    0.738     7    -4.26      0.0691
 9 El Patio           9        0.704  0.758     2    -5.9       0.0567
10 Trending R…       10        0.677  0.719     1    -3.49      0.145 
# ℹ 40 more rows
# ℹ 6 more variables: acousticness <dbl>, instrumentalness <dbl>,
#   liveness <dbl>, valence <dbl>, tempo <dbl>, playlist <chr>

We make both dataframes the same format and join them together.

Bucle_full <- Bucle_full |> 
  select(c(name, Position, danceability, energy, key, loudness, speechiness, acousticness, instrumentalness, liveness, valence, tempo)) |> 
  mutate(playlist = "En Bucle")

top50espdfull <- top50espdfull |> 
  filter( Position <= 30) 

final_df_songs <- rbind(Bucle_full,top50espdfull)
final_df_songs

# A tibble: 60 × 13
   name        Position danceability energy   key loudness speechiness
   <chr>          <int>        <dbl>  <dbl> <int>    <dbl>       <dbl>
 1 Pensabas           1        0.624  0.447     8   -13.4       0.0794
 2 Nota               2        0.7    0.545     3    -5.56      0.349 
 3 Dale               3        0.818  0.808     2    -4.11      0.0531
 4 Godzilla (…        4        0.447  0.477     5    -6.70      0.0313
 5 No Sé Nadar        5        0.463  0.808     6    -5.60      0.106 
 6 El Hokage          6        0.821  0.594     2    -5.60      0.316 
 7 Mi Realidad        7        0.574  0.734     0    -6.64      0.0288
 8 Dile a Tu …        8        0.698  0.64      6    -9.46      0.0511
 9 Más Colao …        9        0.389  0.891     9    -3.31      0.0507
10 Me Gustas …       10        0.721  0.426     0    -7.47      0.11  
# ℹ 50 more rows
# ℹ 6 more variables: acousticness <dbl>, instrumentalness <dbl>,
#   liveness <dbl>, valence <dbl>, tempo <dbl>, playlist <chr>
…
for(i in 1:length(unique(Rosalia_id))) { 
  
  song <- req |>  
  req_url_path_append(paste("audio-features", unique(Rosalia_id)[i], sep = "/")) |>  
  req_perform() |>  
  resp_body_json(simplifyVector = TRUE) |>  
  as.tibble()
  
  Rosalia_feelings <- rbind(song, Rosalia_feelings)
} 
Rosalia_feelings

# A tibble: 43 × 18
   danceability energy   key loudness  mode speechiness acousticness
          <dbl>  <dbl> <int>    <dbl> <int>       <dbl>        <dbl>
 1        0.486  0.15      7   -13.2      1      0.0389        0.945
 2        0.257  0.367     5    -8.02     0      0.0307        0.739
 3        0.411  0.117     6   -11.7      1      0.0322        0.961
 4        0.426  0.436     5    -6.78     1      0.0332        0.817
 5        0.465  0.175     3   -11.1      1      0.093         0.969
 6        0.402  0.196    10    -8.62     0      0.036         0.859
 7        0.539  0.153     4    -8.70     1      0.0333        0.978
 8        0.271  0.156     7   -11.2      1      0.0348        0.964
 9        0.441  0.267     6    -9.64     0      0.0583        0.921
10        0.309  0.315     7   -12.0      1      0.0378        0.977
# ℹ 33 more rows
# ℹ 11 more variables: instrumentalness <dbl>, liveness <dbl>,
#   valence <dbl>, tempo <dbl>, type <chr>, id <chr>, uri <chr>,
#   track_href <chr>, analysis_url <chr>, duration_ms <int>,
#   time_signature <int>
…
